\relax 
\providecommand\hyper@newdestlabel[2]{}
\providecommand\HyperFirstAtBeginDocument{\AtBeginDocument}
\HyperFirstAtBeginDocument{\ifx\hyper@anchor\@undefined
\global\let\oldcontentsline\contentsline
\gdef\contentsline#1#2#3#4{\oldcontentsline{#1}{#2}{#3}}
\global\let\oldnewlabel\newlabel
\gdef\newlabel#1#2{\newlabelxx{#1}#2}
\gdef\newlabelxx#1#2#3#4#5#6{\oldnewlabel{#1}{{#2}{#3}}}
\AtEndDocument{\ifx\hyper@anchor\@undefined
\let\contentsline\oldcontentsline
\let\newlabel\oldnewlabel
\fi}
\fi}
\global\let\hyper@last\relax 
\gdef\HyperFirstAtBeginDocument#1{#1}
\providecommand\HyField@AuxAddToFields[1]{}
\providecommand\HyField@AuxAddToCoFields[2]{}
\citation{cnn1706}
\citation{tfminst}
\citation{iceberg_detection}
\citation{cnn_lstm}
\citation{lstm_time_series}
\select@language{USenglish}
\@writefile{toc}{\select@language{USenglish}}
\@writefile{lof}{\select@language{USenglish}}
\@writefile{lot}{\select@language{USenglish}}
\@writefile{lof}{\contentsline {figure}{\numberline {1}{\ignorespaces Before (left) and after (right) photos of the Sulzberger Ice Shelf associated with the Japan earthquake and resulting tsunami that occurred on March 11, 2011. Taken from \url  {https://www.sciencedaily.com/releases/2011/08/110808132542.htm}.\relax }}{1}{figure.caption.2}}
\providecommand*\caption@xref[2]{\@setref\relax\@undefined{#1}}
\newlabel{fig:iceberg}{{1}{1}{Before (left) and after (right) photos of the Sulzberger Ice Shelf associated with the Japan earthquake and resulting tsunami that occurred on March 11, 2011. Taken from \url {https://www.sciencedaily.com/releases/2011/08/110808132542.htm}.\relax }{figure.caption.2}{}}
\citation{r_cnn}
\citation{fast_rcnn}
\citation{faster_rcnn}
\citation{cnn_segmentation}
\citation{lstm_time_series}
\citation{r_cnn}
\citation{fast_rcnn}
\citation{faster_rcnn}
\citation{cnn_segmentation}
\bibstyle{plain}
\bibdata{biblio}
\bibcite{iceberg_detection}{1}
\bibcite{lstm_time_series}{2}
\bibcite{fast_rcnn}{3}
\bibcite{r_cnn}{4}
\bibcite{cnn_segmentation}{5}
\bibcite{faster_rcnn}{6}
\bibcite{cnn_lstm}{7}
\bibcite{cnn1706}{8}
\bibcite{tfminst}{9}
\@writefile{lof}{\contentsline {figure}{\numberline {2}{\ignorespaces Timeline of planned tasks\relax }}{3}{figure.caption.5}}
\newlabel{fig:timeline}{{2}{3}{Timeline of planned tasks\relax }{figure.caption.5}{}}
