{
    "model": {
        "architecture": "Basic_Band",
        "labels": ["iceberg", "other"],
        "input_size": 100,
        "channel_size": 13,
        "weights_folder": "models/",
        "load_weights": false,
        "verbose": true
    },
    "train": {
        "images_folder": "data/testing_b/train",
        "annotations_folder": "",

        "epochs": 250,
        "training_size": 4096,
        "learning_rate": 1e-5,
        "batch_size": 32,
        "early_stopping_patience": 15,
        "early_stopping_delta": 1e-5,

        "horizontal_flips": true,
        "vertical_flips": true,
        "rotation_range": 360,
        "fill_mode": "constant",
        "zoom_range": 0.10,
        "shear_range": 36,
        "loss": "categorical_crossentropy",

        "debug": true,
        "log": true,
        "continue_training": false
    },
    "validation": {
        "images_folder": "data/testing_b/validation",
        "annotations_folder": ""
    },
    "test": {
        "images_folder": "data/testing_b/test/",
        "annotations_folder": ""
    }
}